{
  "$schema": "https://themost-framework.github.io/themost/models/2018/2/schema.json",
  "@id": "https://universis.io/schemas/Country",
  "name": "Country",
  "type": "lookup",
  "title": "Country",
  "hidden": false,
  "sealed": false,
  "abstract": false,
  "caching": "always",
  "implements": "Enumeration",
  "category": "lookup",
  "version": "1.1",
  "fields": [
    {
      "name": "id",
      "title": "Id",
      "type": "Counter",
      "nullable": false,
      "primary": true
    },
    {
      "name": "alpha2code",
      "title": "Alpha-2 code",
      "type": "Text",
      "nullable": false,
      "size": 2
    },
    {
      "name": "alpha3code",
      "title": "Alpha-3 code",
      "type": "Text",
      "nullable": false,
      "size": 3
    }
  ],
  "privileges": [
    {
      "mask": 1,
      "type": "global",
      "account": "*"
    },
    {
      "mask": 15,
      "type": "global"
    },
    {
      "mask": 15,
      "type": "global",
      "account": "Administrators"
    }
  ],
  "constraints": [
    {
      "type": "unique",
      "description": "Alternate name must be unique across different records",
      "fields": [
        "alternateName"
      ]
    },
    {
      "type": "unique",
      "description": "Name must be unique across different records",
      "fields": [
        "name"
      ]
    }
  ],
  "seed": [
    {
      "alpha2code": "AF",
      "alpha3code": "AFG",
      "alternateName": "AF",
      "name": "Αφγανιστάν"
    },
    {
      "alpha2code": "AL",
      "alpha3code": "ALB",
      "alternateName": "AL",
      "name": "Αλβανία"
    },
    {
      "alpha2code": "AQ",
      "alpha3code": "ATA",
      "alternateName": "AQ",
      "name": "Ανταρκτική"
    },
    {
      "alpha2code": "DZ",
      "alpha3code": "DZA",
      "alternateName": "DZ",
      "name": "Αλγερία"
    },
    {
      "alpha2code": "AS",
      "alpha3code": "ASM",
      "alternateName": "AS",
      "name": "Αμερικανική Σαμόα"
    },
    {
      "alpha2code": "AD",
      "alpha3code": "AND",
      "alternateName": "AD",
      "name": "Ανδόρρα"
    },
    {
      "alpha2code": "AO",
      "alpha3code": "AGO",
      "alternateName": "AO",
      "name": "Ανγκόλα"
    },
    {
      "alpha2code": "AG",
      "alpha3code": "ATG",
      "alternateName": "AG",
      "name": "Αντίγκουα και Μπαρμπούντα"
    },
    {
      "alpha2code": "AZ",
      "alpha3code": "AZE",
      "alternateName": "AZ",
      "name": "Αζερμπαϊτζάν"
    },
    {
      "alpha2code": "AR",
      "alpha3code": "ARG",
      "alternateName": "AR",
      "name": "Αργεντινή"
    },
    {
      "alpha2code": "AU",
      "alpha3code": "AUS",
      "alternateName": "AU",
      "name": "Αυστραλία"
    },
    {
      "alpha2code": "AT",
      "alpha3code": "AUT",
      "alternateName": "AT",
      "name": "Αυστρία"
    },
    {
      "alpha2code": "BS",
      "alpha3code": "BHS",
      "alternateName": "BS",
      "name": "Μπαχάμες"
    },
    {
      "alpha2code": "BH",
      "alpha3code": "BHR",
      "alternateName": "BH",
      "name": "Μπαχρέιν"
    },
    {
      "alpha2code": "BD",
      "alpha3code": "BGD",
      "alternateName": "BD",
      "name": "Μπανγκλαντές"
    },
    {
      "alpha2code": "AM",
      "alpha3code": "ARM",
      "alternateName": "AM",
      "name": "Αρμενία"
    },
    {
      "alpha2code": "BB",
      "alpha3code": "BRB",
      "alternateName": "BB",
      "name": "Μπαρμπάντος"
    },
    {
      "alpha2code": "BE",
      "alpha3code": "BEL",
      "alternateName": "BE",
      "name": "Βέλγιο"
    },
    {
      "alpha2code": "BM",
      "alpha3code": "BMU",
      "alternateName": "BM",
      "name": "Βερμούδες"
    },
    {
      "alpha2code": "BT",
      "alpha3code": "BTN",
      "alternateName": "BT",
      "name": "Μπουτάν"
    },
    {
      "alpha2code": "BO",
      "alpha3code": "BOL",
      "alternateName": "BO",
      "name": "Βολιβία"
    },
    {
      "alpha2code": "BA",
      "alpha3code": "BIH",
      "alternateName": "BA",
      "name": "Βοσνία-Ερζεγοβίνη"
    },
    {
      "alpha2code": "BW",
      "alpha3code": "BWA",
      "alternateName": "BW",
      "name": "Μποτσουάνα"
    },
    {
      "alpha2code": "BV",
      "alpha3code": "BVT",
      "alternateName": "BV",
      "name": "Μπουβέ"
    },
    {
      "alpha2code": "BR",
      "alpha3code": "BRA",
      "alternateName": "BR",
      "name": "Βραζιλία"
    },
    {
      "alpha2code": "BZ",
      "alpha3code": "BLZ",
      "alternateName": "BZ",
      "name": "Μπελίζ"
    },
    {
      "alpha2code": "IO",
      "alpha3code": "IOT",
      "alternateName": "IO",
      "name": "Βρετανικό Έδαφος Ινδικού Ωκεανού"
    },
    {
      "alpha2code": "SB",
      "alpha3code": "SLB",
      "alternateName": "SB",
      "name": "Νήσοι Σολομώντα"
    },
    {
      "alpha2code": "VG",
      "alpha3code": "VGB",
      "alternateName": "VG",
      "name": "Βρετανικές Παρθένοι Νήσοι"
    },
    {
      "alpha2code": "BN",
      "alpha3code": "BRN",
      "alternateName": "BN",
      "name": "Μπρουνέι"
    },
    {
      "alpha2code": "BG",
      "alpha3code": "BGR",
      "alternateName": "BG",
      "name": "Βουλγαρία"
    },
    {
      "alpha2code": "MM",
      "alpha3code": "MMR",
      "alternateName": "MM",
      "name": "Μιανμάρ (Βιρμανία)"
    },
    {
      "alpha2code": "BI",
      "alpha3code": "BDI",
      "alternateName": "BI",
      "name": "Μπουρούντι"
    },
    {
      "alpha2code": "BY",
      "alpha3code": "BLR",
      "alternateName": "BY",
      "name": "Λευκορωσία"
    },
    {
      "alpha2code": "KH",
      "alpha3code": "KHM",
      "alternateName": "KH",
      "name": "Καμπότζη"
    },
    {
      "alpha2code": "CM",
      "alpha3code": "CMR",
      "alternateName": "CM",
      "name": "Καμερούν"
    },
    {
      "alpha2code": "CA",
      "alpha3code": "CAN",
      "alternateName": "CA",
      "name": "Καναδάς"
    },
    {
      "alpha2code": "CV",
      "alpha3code": "CPV",
      "alternateName": "CV",
      "name": "Πράσινο Ακρωτήρι"
    },
    {
      "alpha2code": "KY",
      "alpha3code": "CYM",
      "alternateName": "KY",
      "name": "Κέιμαν Νήσοι"
    },
    {
      "alpha2code": "CF",
      "alpha3code": "CAF",
      "alternateName": "CF",
      "name": "Κεντροαφρικανική Δημοκρατία"
    },
    {
      "alpha2code": "LK",
      "alpha3code": "LKA",
      "alternateName": "LK",
      "name": "Σρι Λάνκα"
    },
    {
      "alpha2code": "TD",
      "alpha3code": "TCD",
      "alternateName": "TD",
      "name": "Τσαντ"
    },
    {
      "alpha2code": "CL",
      "alpha3code": "CHL",
      "alternateName": "CL",
      "name": "Χιλή"
    },
    {
      "alpha2code": "CN",
      "alpha3code": "CHN",
      "alternateName": "CN",
      "name": "Κίνα"
    },
    {
      "alpha2code": "TW",
      "alpha3code": "TWN",
      "alternateName": "TW",
      "name": "Ταϊβάν"
    },
    {
      "alpha2code": "CX",
      "alpha3code": "CXR",
      "alternateName": "CX",
      "name": "Νήσος των Χριστουγέννων"
    },
    {
      "alpha2code": "CC",
      "alpha3code": "CCK",
      "alternateName": "CC",
      "name": "Νησιά Κόκος (Keeling)"
    },
    {
      "alpha2code": "CO",
      "alpha3code": "COL",
      "alternateName": "CO",
      "name": "Κολομβία"
    },
    {
      "alpha2code": "KM",
      "alpha3code": "COM",
      "alternateName": "KM",
      "name": "Κομόρες"
    },
    {
      "alpha2code": "YT",
      "alpha3code": "MYT",
      "alternateName": "YT",
      "name": "Μαγιότ"
    },
    {
      "alpha2code": "CG",
      "alpha3code": "COG",
      "alternateName": "CG",
      "name": "Κογκό"
    },
    {
      "alpha2code": "CD",
      "alpha3code": "COD",
      "alternateName": "CD",
      "name": "Λαϊκή Δημοκρατία του Κογκό"
    },
    {
      "alpha2code": "CK",
      "alpha3code": "COK",
      "alternateName": "CK",
      "name": "Νήσοι Κουκ"
    },
    {
      "alpha2code": "CR",
      "alpha3code": "CRI",
      "alternateName": "CR",
      "name": "Κόστα Ρίκα"
    },
    {
      "alpha2code": "HR",
      "alpha3code": "HRV",
      "alternateName": "HR",
      "name": "Κροατία"
    },
    {
      "alpha2code": "CU",
      "alpha3code": "CUB",
      "alternateName": "CU",
      "name": "Κούβα"
    },
    {
      "alpha2code": "CY",
      "alpha3code": "CYP",
      "alternateName": "CY",
      "name": "Κύπρος"
    },
    {
      "alpha2code": "CZ",
      "alpha3code": "CZE",
      "alternateName": "CZ",
      "name": "Τσεχία"
    },
    {
      "alpha2code": "BJ",
      "alpha3code": "BEN",
      "alternateName": "BJ",
      "name": "Μπενίν"
    },
    {
      "alpha2code": "DK",
      "alpha3code": "DNK",
      "alternateName": "DK",
      "name": "Δανία"
    },
    {
      "alpha2code": "DM",
      "alpha3code": "DMA",
      "alternateName": "DM",
      "name": "Δομινίκα"
    },
    {
      "alpha2code": "DO",
      "alpha3code": "DOM",
      "alternateName": "DO",
      "name": "Δομινικανή Δημοκρατία"
    },
    {
      "alpha2code": "EC",
      "alpha3code": "ECU",
      "alternateName": "EC",
      "name": "Ισημερινός"
    },
    {
      "alpha2code": "SV",
      "alpha3code": "SLV",
      "alternateName": "SV",
      "name": "Ελ Σαλβαδόρ"
    },
    {
      "alpha2code": "GQ",
      "alpha3code": "GNQ",
      "alternateName": "GQ",
      "name": "Ισημερινή Γουινέα"
    },
    {
      "alpha2code": "ET",
      "alpha3code": "ETH",
      "alternateName": "ET",
      "name": "Αιθιοπία"
    },
    {
      "alpha2code": "ER",
      "alpha3code": "ERI",
      "alternateName": "ER",
      "name": "Ερυθραία"
    },
    {
      "alpha2code": "EE",
      "alpha3code": "EST",
      "alternateName": "EE",
      "name": "Εσθονία"
    },
    {
      "alpha2code": "FO",
      "alpha3code": "FRO",
      "alternateName": "FO",
      "name": "Νήσοι Φερόες"
    },
    {
      "alpha2code": "FK",
      "alpha3code": "FLK",
      "alternateName": "FK",
      "name": "Νήσοι Φώκλαντ"
    },
    {
      "alpha2code": "GS",
      "alpha3code": "SGS",
      "alternateName": "GS",
      "name": "Νήσοι Νότια Γεωργία και Νότιες Σάντουιτς"
    },
    {
      "alpha2code": "FJ",
      "alpha3code": "FJI",
      "alternateName": "FJ",
      "name": "Φίτζι"
    },
    {
      "alpha2code": "FI",
      "alpha3code": "FIN",
      "alternateName": "FI",
      "name": "Φινλανδία"
    },
    {
      "alpha2code": "AX",
      "alpha3code": "ALA",
      "alternateName": "AX",
      "name": "Ώλαντ"
    },
    {
      "alpha2code": "FR",
      "alpha3code": "FRA",
      "alternateName": "FR",
      "name": "Γαλλία"
    },
    {
      "alpha2code": "GF",
      "alpha3code": "GUF",
      "alternateName": "GF",
      "name": "Γαλλική Γουιάνα"
    },
    {
      "alpha2code": "PF",
      "alpha3code": "PYF",
      "alternateName": "PF",
      "name": "Γαλλική Πολυνησία"
    },
    {
      "alpha2code": "TF",
      "alpha3code": "ATF",
      "alternateName": "TF",
      "name": "Γαλλικά Νότια και Ανταρκτικά Εδάφη"
    },
    {
      "alpha2code": "DJ",
      "alpha3code": "DJI",
      "alternateName": "DJ",
      "name": "Τζιμπουτί"
    },
    {
      "alpha2code": "GA",
      "alpha3code": "GAB",
      "alternateName": "GA",
      "name": "Γκαμπόν"
    },
    {
      "alpha2code": "GE",
      "alpha3code": "GEO",
      "alternateName": "GE",
      "name": "Γεωργία"
    },
    {
      "alpha2code": "GM",
      "alpha3code": "GMB",
      "alternateName": "GM",
      "name": "Γκάμπια"
    },
    {
      "alpha2code": "PS",
      "alpha3code": "PSE",
      "alternateName": "PS",
      "name": "Δυτική Όχθη"
    },
    {
      "alpha2code": "DE",
      "alpha3code": "DEU",
      "alternateName": "DE",
      "name": "Γερμανία"
    },
    {
      "alpha2code": "GH",
      "alpha3code": "GHA",
      "alternateName": "GH",
      "name": "Γκάνα"
    },
    {
      "alpha2code": "GI",
      "alpha3code": "GIB",
      "alternateName": "GI",
      "name": "Γιβραλτάρ"
    },
    {
      "alpha2code": "KI",
      "alpha3code": "KIR",
      "alternateName": "KI",
      "name": "Κιριμπάτι"
    },
    {
      "alpha2code": "GR",
      "alpha3code": "GRC",
      "alternateName": "GR",
      "name": "Ελλάδα"
    },
    {
      "alpha2code": "GL",
      "alpha3code": "GRL",
      "alternateName": "GL",
      "name": "Γροιλανδία"
    },
    {
      "alpha2code": "GD",
      "alpha3code": "GRD",
      "alternateName": "GD",
      "name": "Γρενάδα"
    },
    {
      "alpha2code": "GP",
      "alpha3code": "GLP",
      "alternateName": "GP",
      "name": "Γουαδελούπη"
    },
    {
      "alpha2code": "GU",
      "alpha3code": "GUM",
      "alternateName": "GU",
      "name": "Γκουάμ"
    },
    {
      "alpha2code": "GT",
      "alpha3code": "GTM",
      "alternateName": "GT",
      "name": "Γουατεμάλα"
    },
    {
      "alpha2code": "GN",
      "alpha3code": "GIN",
      "alternateName": "GN",
      "name": "Γουινέα"
    },
    {
      "alpha2code": "GY",
      "alpha3code": "GUY",
      "alternateName": "GY",
      "name": "Γουιάνα"
    },
    {
      "alpha2code": "HT",
      "alpha3code": "HTI",
      "alternateName": "HT",
      "name": "Αϊτή"
    },
    {
      "alpha2code": "HM",
      "alpha3code": "HMD",
      "alternateName": "HM",
      "name": "Νήσοι Χερντ και Μακντόναλντ"
    },
    {
      "alpha2code": "VA",
      "alpha3code": "VAT",
      "alternateName": "VA",
      "name": "Βατικανό"
    },
    {
      "alpha2code": "HN",
      "alpha3code": "HND",
      "alternateName": "HN",
      "name": "Ονδούρα"
    },
    {
      "alpha2code": "HK",
      "alpha3code": "HKG",
      "alternateName": "HK",
      "name": "Χονγκ Κονγκ"
    },
    {
      "alpha2code": "HU",
      "alpha3code": "HUN",
      "alternateName": "HU",
      "name": "Ουγγαρία"
    },
    {
      "alpha2code": "IS",
      "alpha3code": "ISL",
      "alternateName": "IS",
      "name": "Ισλανδία"
    },
    {
      "alpha2code": "IN",
      "alpha3code": "IND",
      "alternateName": "IN",
      "name": "Ινδία"
    },
    {
      "alpha2code": "ID",
      "alpha3code": "IDN",
      "alternateName": "ID",
      "name": "Ινδονησία"
    },
    {
      "alpha2code": "IR",
      "alpha3code": "IRN",
      "alternateName": "IR",
      "name": "Ιράν"
    },
    {
      "alpha2code": "IQ",
      "alpha3code": "IRQ",
      "alternateName": "IQ",
      "name": "Ιράκ"
    },
    {
      "alpha2code": "IE",
      "alpha3code": "IRL",
      "alternateName": "IE",
      "name": "Ιρλανδία"
    },
    {
      "alpha2code": "IL",
      "alpha3code": "ISR",
      "alternateName": "IL",
      "name": "Ισραήλ"
    },
    {
      "alpha2code": "IT",
      "alpha3code": "ITA",
      "alternateName": "IT",
      "name": "Ιταλία"
    },
    {
      "alpha2code": "CI",
      "alpha3code": "CIV",
      "alternateName": "CI",
      "name": "Ακτή Ελεφαντοστού"
    },
    {
      "alpha2code": "JM",
      "alpha3code": "JAM",
      "alternateName": "JM",
      "name": "Τζαμάικα"
    },
    {
      "alpha2code": "JP",
      "alpha3code": "JPN",
      "alternateName": "JP",
      "name": "Ιαπωνία"
    },
    {
      "alpha2code": "KZ",
      "alpha3code": "KAZ",
      "alternateName": "KZ",
      "name": "Καζακστάν"
    },
    {
      "alpha2code": "JO",
      "alpha3code": "JOR",
      "alternateName": "JO",
      "name": "Ιορδανία"
    },
    {
      "alpha2code": "KE",
      "alpha3code": "KEN",
      "alternateName": "KE",
      "name": "Κένυα"
    },
    {
      "alpha2code": "KP",
      "alpha3code": "PRK",
      "alternateName": "KP",
      "name": "Βόρεια Κορέα"
    },
    {
      "alpha2code": "KR",
      "alpha3code": "KOR",
      "alternateName": "KR",
      "name": "Νότια Κορέα"
    },
    {
      "alpha2code": "KW",
      "alpha3code": "KWT",
      "alternateName": "KW",
      "name": "Κουβέιτ"
    },
    {
      "alpha2code": "KG",
      "alpha3code": "KGZ",
      "alternateName": "KG",
      "name": "Κιργιζία"
    },
    {
      "alpha2code": "LA",
      "alpha3code": "LAO",
      "alternateName": "LA",
      "name": "Λάος"
    },
    {
      "alpha2code": "LB",
      "alpha3code": "LBN",
      "alternateName": "LB",
      "name": "Λίβανος"
    },
    {
      "alpha2code": "LS",
      "alpha3code": "LSO",
      "alternateName": "LS",
      "name": "Λεσότο"
    },
    {
      "alpha2code": "LV",
      "alpha3code": "LVA",
      "alternateName": "LV",
      "name": "Λεττονία"
    },
    {
      "alpha2code": "LR",
      "alpha3code": "LBR",
      "alternateName": "LR",
      "name": "Λιβερία"
    },
    {
      "alpha2code": "LY",
      "alpha3code": "LBY",
      "alternateName": "LY",
      "name": "Λιβύη"
    },
    {
      "alpha2code": "LI",
      "alpha3code": "LIE",
      "alternateName": "LI",
      "name": "Λίχτενσταϊν"
    },
    {
      "alpha2code": "LT",
      "alpha3code": "LTU",
      "alternateName": "LT",
      "name": "Λιθουανία"
    },
    {
      "alpha2code": "LU",
      "alpha3code": "LUX",
      "alternateName": "LU",
      "name": "Λουξεμβούργο"
    },
    {
      "alpha2code": "MO",
      "alpha3code": "MAC",
      "alternateName": "MO",
      "name": "Μακάο"
    },
    {
      "alpha2code": "MG",
      "alpha3code": "MDG",
      "alternateName": "MG",
      "name": "Μαδαγασκάρη"
    },
    {
      "alpha2code": "MW",
      "alpha3code": "MWI",
      "alternateName": "MW",
      "name": "Μαλάουι"
    },
    {
      "alpha2code": "MY",
      "alpha3code": "MYS",
      "alternateName": "MY",
      "name": "Μαλαισία"
    },
    {
      "alpha2code": "MV",
      "alpha3code": "MDV",
      "alternateName": "MV",
      "name": "Μαλδίβες"
    },
    {
      "alpha2code": "ML",
      "alpha3code": "MLI",
      "alternateName": "ML",
      "name": "Μάλι"
    },
    {
      "alpha2code": "MT",
      "alpha3code": "MLT",
      "alternateName": "MT",
      "name": "Μάλτα"
    },
    {
      "alpha2code": "MQ",
      "alpha3code": "MTQ",
      "alternateName": "MQ",
      "name": "Μαρτινίκα"
    },
    {
      "alpha2code": "MR",
      "alpha3code": "MRT",
      "alternateName": "MR",
      "name": "Μαυριτανία"
    },
    {
      "alpha2code": "MU",
      "alpha3code": "MUS",
      "alternateName": "MU",
      "name": "Μαυρίκιος"
    },
    {
      "alpha2code": "MX",
      "alpha3code": "MEX",
      "alternateName": "MX",
      "name": "Μεξικό"
    },
    {
      "alpha2code": "MC",
      "alpha3code": "MCO",
      "alternateName": "MC",
      "name": "Μονακό"
    },
    {
      "alpha2code": "MN",
      "alpha3code": "MNG",
      "alternateName": "MN",
      "name": "Μογγολία"
    },
    {
      "alpha2code": "MD",
      "alpha3code": "MDA",
      "alternateName": "MD",
      "name": "Μολδαβία"
    },
    {
      "alpha2code": "ME",
      "alpha3code": "MNE",
      "alternateName": "ME",
      "name": "Μαυροβούνιο"
    },
    {
      "alpha2code": "MS",
      "alpha3code": "MSR",
      "alternateName": "MS",
      "name": "Μοντσερράτ"
    },
    {
      "alpha2code": "MA",
      "alpha3code": "MAR",
      "alternateName": "MA",
      "name": "Μαρόκο"
    },
    {
      "alpha2code": "MZ",
      "alpha3code": "MOZ",
      "alternateName": "MZ",
      "name": "Μοζαμβίκη"
    },
    {
      "alpha2code": "OM",
      "alpha3code": "OMN",
      "alternateName": "OM",
      "name": "Ομάν"
    },
    {
      "alpha2code": "NA",
      "alpha3code": "NAM",
      "alternateName": "NA",
      "name": "Ναμίμπια"
    },
    {
      "alpha2code": "NR",
      "alpha3code": "NRU",
      "alternateName": "NR",
      "name": "Ναουρού"
    },
    {
      "alpha2code": "NP",
      "alpha3code": "NPL",
      "alternateName": "NP",
      "name": "Νεπάλ"
    },
    {
      "alpha2code": "NL",
      "alpha3code": "NLD",
      "alternateName": "NL",
      "name": "Ολλανδία (Κάτω Χώρες)"
    },
    {
      "alpha2code": "AN",
      "alpha3code": "ANT",
      "alternateName": "AN",
      "name": "Ολλανδικές Αντίλλες"
    },
    {
      "alpha2code": "CW",
      "alpha3code": "CUW",
      "alternateName": "CW",
      "name": "Κουρασάο"
    },
    {
      "alpha2code": "AW",
      "alpha3code": "ABW",
      "alternateName": "AW",
      "name": "Αρούμπα"
    },
    {
      "alpha2code": "SX",
      "alpha3code": "SXM",
      "alternateName": "SX",
      "name": "Άγιος Μαρτίνος (Ολλανδία)"
    },
    {
      "alpha2code": "BQ",
      "alpha3code": "BES",
      "alternateName": "BQ",
      "name": "Μποναίρ, Άγιος Ευστάθιος και Σάμπα (Bonaire, Sint Eustatius and Saba)"
    },
    {
      "alpha2code": "NC",
      "alpha3code": "NCL",
      "alternateName": "NC",
      "name": "Νέα Καληδονία"
    },
    {
      "alpha2code": "VU",
      "alpha3code": "VUT",
      "alternateName": "VU",
      "name": "Βανουάτου"
    },
    {
      "alpha2code": "NZ",
      "alpha3code": "NZL",
      "alternateName": "NZ",
      "name": "Νέα Ζηλανδία"
    },
    {
      "alpha2code": "NI",
      "alpha3code": "NIC",
      "alternateName": "NI",
      "name": "Νικαράγουα"
    },
    {
      "alpha2code": "NE",
      "alpha3code": "NER",
      "alternateName": "NE",
      "name": "Νίγηρας"
    },
    {
      "alpha2code": "NG",
      "alpha3code": "NGA",
      "alternateName": "NG",
      "name": "Νιγηρία"
    },
    {
      "alpha2code": "NU",
      "alpha3code": "NIU",
      "alternateName": "NU",
      "name": "Νιούε"
    },
    {
      "alpha2code": "NF",
      "alpha3code": "NFK",
      "alternateName": "NF",
      "name": "Νησί Νόρφολκ"
    },
    {
      "alpha2code": "NO",
      "alpha3code": "NOR",
      "alternateName": "NO",
      "name": "Νορβηγία"
    },
    {
      "alpha2code": "MP",
      "alpha3code": "MNP",
      "alternateName": "MP",
      "name": "Βόρειες Μαριάνες Νήσοι"
    },
    {
      "alpha2code": "UM",
      "alpha3code": "UMI",
      "alternateName": "UM",
      "name": "Απομακρυσμένες Νησίδες των Ηνωμένων Πολιτειών"
    },
    {
      "alpha2code": "FM",
      "alpha3code": "FSM",
      "alternateName": "FM",
      "name": "Ομόσπονδες Πολιτείες της Μικρονησίας"
    },
    {
      "alpha2code": "MH",
      "alpha3code": "MHL",
      "alternateName": "MH",
      "name": "Νήσοι Μάρσαλ"
    },
    {
      "alpha2code": "PW",
      "alpha3code": "PLW",
      "alternateName": "PW",
      "name": "Παλάου"
    },
    {
      "alpha2code": "PK",
      "alpha3code": "PAK",
      "alternateName": "PK",
      "name": "Πακιστάν"
    },
    {
      "alpha2code": "PA",
      "alpha3code": "PAN",
      "alternateName": "PA",
      "name": "Παναμάς"
    },
    {
      "alpha2code": "PG",
      "alpha3code": "PNG",
      "alternateName": "PG",
      "name": "Παπούα Νέα Γουινέα"
    },
    {
      "alpha2code": "PY",
      "alpha3code": "PRY",
      "alternateName": "PY",
      "name": "Παραγουάη"
    },
    {
      "alpha2code": "PE",
      "alpha3code": "PER",
      "alternateName": "PE",
      "name": "Περού"
    },
    {
      "alpha2code": "PH",
      "alpha3code": "PHL",
      "alternateName": "PH",
      "name": "Φιλιππίνες"
    },
    {
      "alpha2code": "PN",
      "alpha3code": "PCN",
      "alternateName": "PN",
      "name": "Νησιά Πίτκερν"
    },
    {
      "alpha2code": "PL",
      "alpha3code": "POL",
      "alternateName": "PL",
      "name": "Πολωνία"
    },
    {
      "alpha2code": "PT",
      "alpha3code": "PRT",
      "alternateName": "PT",
      "name": "Πορτογαλία"
    },
    {
      "alpha2code": "GW",
      "alpha3code": "GNB",
      "alternateName": "GW",
      "name": "Γουινέα-Μπισσάου"
    },
    {
      "alpha2code": "TL",
      "alpha3code": "TLS",
      "alternateName": "TL",
      "name": "Ανατολικό Τιμόρ"
    },
    {
      "alpha2code": "PR",
      "alpha3code": "PRI",
      "alternateName": "PR",
      "name": "Πουέρτο Ρίκο"
    },
    {
      "alpha2code": "QA",
      "alpha3code": "QAT",
      "alternateName": "QA",
      "name": "Κατάρ"
    },
    {
      "alpha2code": "RE",
      "alpha3code": "REU",
      "alternateName": "RE",
      "name": "Ρεϊνιόν"
    },
    {
      "alpha2code": "RO",
      "alpha3code": "ROU",
      "alternateName": "RO",
      "name": "Ρουμανία"
    },
    {
      "alpha2code": "RU",
      "alpha3code": "RUS",
      "alternateName": "RU",
      "name": "Ρωσία"
    },
    {
      "alpha2code": "RW",
      "alpha3code": "RWA",
      "alternateName": "RW",
      "name": "Ρουάντα"
    },
    {
      "alpha2code": "BL",
      "alpha3code": "BLM",
      "alternateName": "BL",
      "name": "Άγιος Βαρθολομαίος"
    },
    {
      "alpha2code": "SH",
      "alpha3code": "SHN",
      "alternateName": "SH",
      "name": "Νήσος Αγίας Ελένης"
    },
    {
      "alpha2code": "KN",
      "alpha3code": "KNA",
      "alternateName": "KN",
      "name": "Άγιος Χριστόφορος και Νέβις"
    },
    {
      "alpha2code": "AI",
      "alpha3code": "AIA",
      "alternateName": "AI",
      "name": "Ανγκουίλα"
    },
    {
      "alpha2code": "LC",
      "alpha3code": "LCA",
      "alternateName": "LC",
      "name": "Αγία Λουκία"
    },
    {
      "alpha2code": "MF",
      "alpha3code": "MAF",
      "alternateName": "MF",
      "name": "Άγιος Μαρτίνος (Γαλλία)"
    },
    {
      "alpha2code": "PM",
      "alpha3code": "SPM",
      "alternateName": "PM",
      "name": "Σαιν Πιερ και Μικελόν"
    },
    {
      "alpha2code": "VC",
      "alpha3code": "VCT",
      "alternateName": "VC",
      "name": "Άγιος Βικέντιος και Γρεναδίνες"
    },
    {
      "alpha2code": "SM",
      "alpha3code": "SMR",
      "alternateName": "SM",
      "name": "Άγιος Μαρίνος"
    },
    {
      "alpha2code": "ST",
      "alpha3code": "STP",
      "alternateName": "ST",
      "name": "Σάο Τομέ και Πρίνσιπε"
    },
    {
      "alpha2code": "SA",
      "alpha3code": "SAU",
      "alternateName": "SA",
      "name": "Σαουδική Αραβία"
    },
    {
      "alpha2code": "SN",
      "alpha3code": "SEN",
      "alternateName": "SN",
      "name": "Σενεγάλη"
    },
    {
      "alpha2code": "RS",
      "alpha3code": "SRB",
      "alternateName": "RS",
      "name": "Σερβία"
    },
    {
      "alpha2code": "SC",
      "alpha3code": "SYC",
      "alternateName": "SC",
      "name": "Σεϋχέλλες"
    },
    {
      "alpha2code": "SL",
      "alpha3code": "SLE",
      "alternateName": "SL",
      "name": "Σιέρα Λεόνε"
    },
    {
      "alpha2code": "SG",
      "alpha3code": "SGP",
      "alternateName": "SG",
      "name": "Σιγκαπούρη"
    },
    {
      "alpha2code": "SK",
      "alpha3code": "SVK",
      "alternateName": "SK",
      "name": "Σλοβακία"
    },
    {
      "alpha2code": "VN",
      "alpha3code": "VNM",
      "alternateName": "VN",
      "name": "Βιετνάμ"
    },
    {
      "alpha2code": "SI",
      "alpha3code": "SVN",
      "alternateName": "SI",
      "name": "Σλοβενία"
    },
    {
      "alpha2code": "SO",
      "alpha3code": "SOM",
      "alternateName": "SO",
      "name": "Σομαλία"
    },
    {
      "alpha2code": "ZA",
      "alpha3code": "ZAF",
      "alternateName": "ZA",
      "name": "Νότια Αφρική"
    },
    {
      "alpha2code": "ZW",
      "alpha3code": "ZWE",
      "alternateName": "ZW",
      "name": "Ζιμπάμπουε"
    },
    {
      "alpha2code": "ES",
      "alpha3code": "ESP",
      "alternateName": "ES",
      "name": "Ισπανία"
    },
    {
      "alpha2code": "SS",
      "alpha3code": "SSD",
      "alternateName": "SS",
      "name": "Νότιο Σουδάν"
    },
    {
      "alpha2code": "EH",
      "alpha3code": "ESH",
      "alternateName": "EH",
      "name": "Δυτική Σαχάρα"
    },
    {
      "alpha2code": "SD",
      "alpha3code": "SDN",
      "alternateName": "SD",
      "name": "Σουδάν"
    },
    {
      "alpha2code": "SR",
      "alpha3code": "SUR",
      "alternateName": "SR",
      "name": "Σουρινάμ"
    },
    {
      "alpha2code": "SJ",
      "alpha3code": "SJM",
      "alternateName": "SJ",
      "name": "Σβάλμπαρντ"
    },
    {
      "alpha2code": "SZ",
      "alpha3code": "SWZ",
      "alternateName": "SZ",
      "name": "Σουαζιλάνδη"
    },
    {
      "alpha2code": "SE",
      "alpha3code": "SWE",
      "alternateName": "SE",
      "name": "Σουηδία"
    },
    {
      "alpha2code": "CH",
      "alpha3code": "CHE",
      "alternateName": "CH",
      "name": "Ελβετία"
    },
    {
      "alpha2code": "SY",
      "alpha3code": "SYR",
      "alternateName": "SY",
      "name": "Συρία"
    },
    {
      "alpha2code": "TJ",
      "alpha3code": "TJK",
      "alternateName": "TJ",
      "name": "Τατζικιστάν"
    },
    {
      "alpha2code": "TH",
      "alpha3code": "THA",
      "alternateName": "TH",
      "name": "Ταϊλάνδη"
    },
    {
      "alpha2code": "TG",
      "alpha3code": "TGO",
      "alternateName": "TG",
      "name": "Τόγκο"
    },
    {
      "alpha2code": "TK",
      "alpha3code": "TKL",
      "alternateName": "TK",
      "name": "Τοκελάου"
    },
    {
      "alpha2code": "TO",
      "alpha3code": "TON",
      "alternateName": "TO",
      "name": "Τόγκα"
    },
    {
      "alpha2code": "TT",
      "alpha3code": "TTO",
      "alternateName": "TT",
      "name": "Τρινιντάντ και Τομπάγκο"
    },
    {
      "alpha2code": "AE",
      "alpha3code": "ARE",
      "alternateName": "AE",
      "name": "Ηνωμένα Αραβικά Εμιράτα"
    },
    {
      "alpha2code": "TN",
      "alpha3code": "TUN",
      "alternateName": "TN",
      "name": "Τυνησία"
    },
    {
      "alpha2code": "TR",
      "alpha3code": "TUR",
      "alternateName": "TR",
      "name": "Τουρκία"
    },
    {
      "alpha2code": "TM",
      "alpha3code": "TKM",
      "alternateName": "TM",
      "name": "Τουρκμενιστάν"
    },
    {
      "alpha2code": "TC",
      "alpha3code": "TCA",
      "alternateName": "TC",
      "name": "Τερκς και Κέικος"
    },
    {
      "alpha2code": "TV",
      "alpha3code": "TUV",
      "alternateName": "TV",
      "name": "Τουβαλού"
    },
    {
      "alpha2code": "UG",
      "alpha3code": "UGA",
      "alternateName": "UG",
      "name": "Ουγκάντα"
    },
    {
      "alpha2code": "UA",
      "alpha3code": "UKR",
      "alternateName": "UA",
      "name": "Ουκρανία"
    },
    {
      "alpha2code": "MK",
      "alpha3code": "MKD",
      "alternateName": "MK",
      "name": "ΠΓΔΜ"
    },
    {
      "alpha2code": "EG",
      "alpha3code": "EGY",
      "alternateName": "EG",
      "name": "Αίγυπτος"
    },
    {
      "alpha2code": "GB",
      "alpha3code": "GBR",
      "alternateName": "GB",
      "name": "Ηνωμένο Βασίλειο"
    },
    {
      "alpha2code": "GG",
      "alpha3code": "GGY",
      "alternateName": "GG",
      "name": "Γκέρνσεϊ"
    },
    {
      "alpha2code": "JE",
      "alpha3code": "JEY",
      "alternateName": "JE",
      "name": "Τζέρσεϊ"
    },
    {
      "alpha2code": "IM",
      "alpha3code": "IMN",
      "alternateName": "IM",
      "name": "Νήσος Μαν"
    },
    {
      "alpha2code": "TZ",
      "alpha3code": "TZA",
      "alternateName": "TZ",
      "name": "Τανζανία"
    },
    {
      "alpha2code": "US",
      "alpha3code": "USA",
      "alternateName": "US",
      "name": "Ηνωμένες Πολιτείες Αμερικής"
    },
    {
      "alpha2code": "VI",
      "alpha3code": "VIR",
      "alternateName": "VI",
      "name": "Αμερικανικές Παρθένοι Νήσοι"
    },
    {
      "alpha2code": "BF",
      "alpha3code": "BFA",
      "alternateName": "BF",
      "name": "Μπουρκίνα Φάσο"
    },
    {
      "alpha2code": "UY",
      "alpha3code": "URY",
      "alternateName": "UY",
      "name": "Ουρουγουάη"
    },
    {
      "alpha2code": "UZ",
      "alpha3code": "UZB",
      "alternateName": "UZ",
      "name": "Ουζμπεκιστάν"
    },
    {
      "alpha2code": "VE",
      "alpha3code": "VEN",
      "alternateName": "VE",
      "name": "Βενεζουέλα"
    },
    {
      "alpha2code": "WF",
      "alpha3code": "WLF",
      "alternateName": "WF",
      "name": "Ουαλίς και Φουτουνά"
    },
    {
      "alpha2code": "WS",
      "alpha3code": "WSM",
      "alternateName": "WS",
      "name": "Σαμόα"
    },
    {
      "alpha2code": "YE",
      "alpha3code": "YEM",
      "alternateName": "YE",
      "name": "Υεμένη"
    },
    {
      "alpha2code": "ZM",
      "alpha3code": "ZMB",
      "alternateName": "ZM",
      "name": "Ζάμπια"
    }
  ],
  "eventListeners": [
    {
      "name": "Lookup Cache Listener",
      "type": "./listeners/lookup-cache-listener.js"
    }
  ]
}
