{
  "$schema": "https://themost-framework.github.io/themost/models/2018/2/schema.json",
  "@id": "https://universis.io/schemas/CourseStructureType",
  "name": "CourseStructureType",
  "title": "Τύποι δομής μαθημάτων",
  "type": "lookup",
  "hidden": false,
  "sealed": false,
  "version": "0.1",
  "source": "CourseStructureTypeBase",
  "view": "CourseStructureTypeBase",
  "fields": [
    {
      "name": "id",
      "title": "Id",
      "description": "Id",
      "type": "Integer",
      "nullable": false,
      "size": 4,
      "primary": true
    },
    {
      "name": "name",
      "title": "Name",
      "description": "The name of the item.",
      "type": "Text",
      "nullable": false,
      "size": 100
    },
    {
      "name": "isComplete",
      "title": "Complete",
      "description": "Course structure type complete",
      "type": "Boolean",
      "nullable": false
    }
  ],
  "privileges": [
    {
      "mask": 1,
      "type": "global",
      "account": "*"
    },
    {
      "mask": 15,
      "type": "global"
    }
  ],
  "eventListeners": [
    {
      "name": "Lookup Cache Listener",
      "type": "./listeners/lookup-cache-listener.js"
    }
  ]
}
