{
  "$schema": "https://themost-framework.github.io/themost/models/2018/2/schema.json",
  "@id": "https://universis.io/schemas/CourseExamStudentGrade",
  "name": "CourseExamStudentGrade",
  "title": "Φοιτητές που μπορούν να λάβουν μέρος στην εξέταση",
  "hidden": false,
  "sealed": false,
  "version": "0.1",
  "source": "CourseExamStudentGrades",
  "view": "CourseExamStudentGrades",
  "fields": [
    {
      "name": "id",
      "title": "Κωδικός",
      "description": "Κωδικός",
      "type": "Text",
      "nullable": false,
      "primary": true,
      "readonly": true
    },
    {
      "name": "student",
      "title": "Φοιτητής",
      "description": "Ο φοιτητής",
      "type": "Student",
      "nullable": false,
      "editable": false
    },
    {
      "name": "registrationSemester",
      "title": "Εξάμηνο φοιτητή",
      "description": "Εξάμηνο φοιτητή",
      "type": "Integer",
      "nullable": true,
      "size": 4,
      "readonly": true
    },
    {
      "name": "courseExam",
      "title": "Εξέταση μαθήματος",
      "description": "Εξέταση μαθήματος",
      "type": "CourseExam",
      "nullable": false,
      "editable": false
    },
    {
      "name": "courseClass",
      "title": "Τάξη μαθήματος",
      "description": "Η συνδεδεμένη τάξη του μαθήματος με την εξέταση",
      "type": "CourseClass",
      "editable": false
    },
    {
      "name": "registrationType",
      "title": "Τύπος δήλωσης",
      "description": "Ο τύπος δήλωσης του μαθήματος",
      "type": "RegistrationType",
      "nullable": true,
      "size": 4
    },
    {
      "name": "section",
      "title": "Τμήμα τάξης",
      "description": "Το τμήμα τάξης που δηλώθηκε από το φοιτητή",
      "type": "Integer",
      "nullable": true,
      "size": 4
    },
    {
      "name": "sectionName",
      "title": "Τμήμα τάξης (ονομασία)",
      "description": "Τμήμα τάξης (ονομασία)",
      "type": "Text",
      "readonly": true
    },
    {
      "name": "status",
      "title": "Κατάσταση",
      "description": "Κατάσταση βαθμού",
      "type": "GradeStatus",
      "nullable": true,
      "mapping": {
        "parentModel": "GradeStatus",
        "childModel": "CourseExamStudentGrade",
        "parentField": "identifier",
        "childField": "status",
        "associationType": "association"
      }
    },
    {
      "name": "units",
      "title": "Διδακτικές μονάδες",
      "description": "Διδακτικές μονάδες",
      "type": "Number",
      "nullable": true,
      "size": 4
    },
    {
      "name": "coefficient",
      "title": "Συντελεστής πτυχίου",
      "description": "Ο συντελεστής πτυχίου του μαθήματος",
      "type": "Number",
      "nullable": true,
      "size": 4
    },
    {
      "name": "hours",
      "title": "Ώρες διδασκαλίας",
      "description": "Ώρες διδασκαλίας",
      "type": "Text",
      "nullable": true,
      "size": 2
    },
    {
      "name": "semester",
      "title": "Εξάμηνο",
      "description": "Εξάμηνο χρέωσης του μαθήματος",
      "type": "Semester"
    },
    {
      "name": "courseType",
      "title": "Τύπος μαθήματος",
      "description": "Τύπος του μαθήματος",
      "type": "CourseType"
    },
    {
      "name": "ects",
      "title": "ects",
      "description": "Μονάδες ects",
      "type": "Number"
    },
    {
      "name": "course",
      "title": "Μάθημα",
      "description": "Μάθημα",
      "type": "Course"
    },
    {
      "name": "grade1",
      "title": "Βαθμός 1",
      "description": "Είναι ο βαθμός της εξέτασης",
      "type": "Number",
      "nullable": true,
      "size": 4
    },
    {
      "name": "grade2",
      "title": "Βαθμός 2",
      "description": "Είναι ο βαθμός της εξέτασης σε περίπτωση αναβαθμολόγησης",
      "type": "Number",
      "nullable": true,
      "size": 4
    },
    {
      "name": "examGrade",
      "title": "Βαθμός",
      "description": "Ο τελικός βαθμός της εξέτασης",
      "type": "Number"
    },
    {
      "name": "formattedGrade",
      "title": "Βαθμός (στην κλίμακα)",
      "description": "Βαθμός (ανηγμένος στην κλίμακα)",
      "type": "Text",
      "readonly": true
    },
    {
      "name": "dateModified",
      "title": "Ημερομηνία τροποποίησης",
      "description": "Ημερομηνία τροποποίησης",
      "type": "DateTime",
      "nullable": false,
      "value": "javascript:return new Date();",
      "calculation": "javascript:return this.now();"
    },
    {
      "name": "isPassed",
      "title": "Passed course",
      "description": "Το μάθημα έχει περαστεί",
      "type": "Number",
      "readonly": true
    },
    {
      "name": "classRegistrationStatus",
      "title": "Class Registration Status",
      "description": "Η κατάσταση της δήλωσης της τάξης",
      "type": "Integer",
      "readonly": true
    },
    {
      "name": "classRegistrationStatusName",
      "title": "Κατάσταση δήλωσης τάξης (ονομασία)",
      "description": "Η κατάσταση της δήλωσης της τάξης",
      "type": "Text",
      "readonly": true
    }
  ],
  "constraints": [
  ],
  "privileges": [
    {
      "mask": 1,
      "type": "global",
      "account": "Administrators"
    },
    {
      "mask": 15,
      "type": "global"
    },
    {
      "mask": 1,
      "type": "self",
      "account": "Registrar",
      "filter": "student/department eq departments()"
    }
  ],
  "views": [
    {
      "name": "CourseExamInstructorView",
      "fields": [
        {
          "name": "id"
        },
        {
          "name": "student",
          "expandable": false,
          "mapping": {
            "options": {
              "$select": "StudentSummary"
            }
          }
        },
        {
          "name": "registrationSemester"
        },
        {
          "name": "courseExam"
        },
        {
          "name": "courseClass"
        },
        {
          "name": "registrationType"
        },
        {
          "name": "section"
        },
        {
          "name": "sectionName"
        },
        {
          "name": "status"
        },
        {
          "name": "units"
        },
        {
          "name": "coefficient"
        },
        {
          "name": "hours"
        },
        {
          "name": "semester"
        },
        {
          "name": "courseType"
        },
        {
          "name": "ects"
        },
        {
          "name": "course"
        },
        {
          "name": "grade1"
        },
        {
          "name": "grade2"
        },
        {
          "name": "examGrade"
        },
        {
          "name": "formattedGrade"
        },
        {
          "name": "dateModified"
        },
        {
          "name": "isPassed"
        },
        {
          "name": "classRegistrationStatusName",
          "property": "classRegistrationStatus"
        }
      ]
    },
    {
      "name": "export",
      "description": "This view contains the fields that is going to used for exporting class students.",
      "order": "student/person/familyName, student/person/givenName",
      "fields": [
        {
          "name": "courseExam",
          "title": "Examination Code"
        },
        {
          "name": "student",
          "expandable": false,
          "title": "Student",
          "mapping": {
            "options": {
              "$select": "StudentSummary"
            }
          }
        },
        {
          "name": "student/studentIdentifier",
          "property": "studentIdentifier",
          "title": "Student Code"
        },
        {
          "name": "student/person/familyName",
          "property": "familyName",
          "title": "Family Name"
        },
        {
          "name": "student/person/givenName",
          "property": "givenName",
          "title": "Given Name"
        },
        {
          "name": "student/person/fatherName",
          "property": "fatherName",
          "title": "Father Name"
        },
        {
          "name": "student/studentStatus/name",
          "property": "studentStatus",
          "title": "Status"
        },
        {
          "name": "student/inscriptionYear",
          "property": "inscriptionYear",
          "title": "Inscription Year"
        },
        {
          "name": "registrationSemester",
          "property": "registrationSemester",
          "title": "Semester"
        },
        {
          "name": "sectionName",
          "title": "Class Section"
        },
        {
          "name": "classRegistrationStatusName",
          "title": "Class registration status"
        },
        {
          "name": "formattedGrade",
          "title": "Grade"
        }
      ]
    },
    {
      "name": "import",
      "description": "This view contains the fields that is going to used for exporting class students.",
      "fields": [
        {
          "name": "student",
          "expandable": false,
          "title": "Φοιτητής"
        },
        {
          "name": "student/studentIdentifier",
          "property": "studentIdentifier",
          "title": "ΑΕΜ"
        },
        {
          "name": "student/person/familyName",
          "property": "familyName",
          "title": "Επώνυμο"
        },
        {
          "name": "student/person/givenName",
          "property": "givenName",
          "title": "Όνομα"
        },
        {
          "name": "formattedGrade",
          "title": "Βαθμός"
        }
      ]
    }
  ],
  "eventListeners": [
  ]
}
