{
    "$schema": "https://themost-framework.github.io/themost/models/2018/2/schema.json",
    "@id": "https://universis.io/CreateStudentUserAction",
    "name": "CreateStudentUserAction",
    "description": "The act of creating a student user.",
    "title": "CreateStudentUserAction",
    "abstract": false,
    "sealed": false,
    "hidden": true,
    "inherits": "CreateUserAction",
    "version": "1.2",
    "fields": [
        {
            "name": "student",
            "title": "Φοιτητής",
            "description": "Ο φοιτητής για τον οποίο δημιουργείται ο λογαριασμός",
            "type": "Student",
            "nullable": false,
            "editable": false
        }
    ],
    "eventListeners": [
        {
            "type": "@themost/data/previous-state-listener"
        },
        {
            "type": "./listeners/after-save-create-student-user-listener"
        }
    ],
    "privileges": [
        {
            "mask": 15,
            "type": "global"
        },
        {
            "mask": 15,
            "type": "global",
            "account": "Administrators"
        }
    ]
}
