{
  "$schema": "https://themost-framework.github.io/themost/models/2018/2/schema.json",
  "@id": "https://universis.io/schemas/EducationEventAttendance",
  "name": "EducationEventAttendance",
  "description": "A model to track participants of education events.",
  "title": "EducationEventAttendance",
  "abstract": false,
  "sealed": false,
  "implements": "Thing",
  "version": "0.2",
  "fields": [
    {
      "name": "student",
      "description": "Student",
      "title": "Student",
      "type": "Student",
      "nullable": false,
      "editable": false
    },
    {
      "name": "event",
      "description": "The event which this attendance record is related to.",
      "title": "Event",
      "type": "EducationEvent",
      "nullable": false,
      "editable": false
    },
    {
      "name": "coefficient",
      "description": "A number which presents the coefficient of a presence that is going to be used to calculate the attendance count in a courseClass",
      "title": "Coefficient",
      "type": "Integer",
      "value": "javascript:return 1;"
    }
  ],
  "constraints": [
    {
      "type": "unique",
      "fields": [
        "student",
        "event"
      ]
    }
  ],
  "privileges": [
    {
      "mask": 15,
      "type": "global"
    },
    {
      "mask": 15,
      "type": "global",
      "account": "Administrators"
    }
  ]
}
