{
  "$schema": "https://themost-framework.github.io/themost/models/2018/2/schema.json",
  "@id": "http://schema.org/EntryPoint",
  "name": "EntryPoint",
  "description": "An entry point, within some Web-based protocol.",
  "title": "EntryPoint",
  "abstract": false,
  "sealed": false,
  "implements": "Thing",
  "version": "1.0",
  "fields": [
    {
      "@id": "http://schema.org/additionalType",
      "name": "additionalType",
      "readonly": true,
      "nullable": false,
      "value": "javascript:return this.model.name;"
    },
    {
      "@id": "http://schema.org/urlTemplate",
      "name": "urlTemplate",
      "title": "urlTemplate",
      "description": "An url template (RFC6570) that will be used to construct the target of the execution of the action.",
      "type": "Text"
    },
    {
      "@id": "http://schema.org/actionApplication",
      "name": "actionApplication",
      "title": "actionApplication",
      "description": "An application that can complete the request.",
      "type": "Text"
    },
    {
      "@id": "http://schema.org/application",
      "name": "application",
      "title": "application",
      "description": "An application that can complete the request.",
      "type": "Text"
    },
    {
      "@id": "http://schema.org/actionPlatform",
      "name": "actionPlatform",
      "title": "actionPlatform",
      "description": "The high level platform(s) where the Action can be performed for the given URL. To specify a specific application or operating system instance, use actionApplication.",
      "type": "Text"
    },
    {
      "@id": "http://schema.org/httpMethod",
      "name": "httpMethod",
      "title": "httpMethod",
      "description": "An HTTP method that specifies the appropriate HTTP method for a request to an HTTP EntryPoint. Values are capitalized strings as used in HTTP.",
      "type": "Text"
    },
    {
      "@id": "http://schema.org/encodingType",
      "name": "encodingType",
      "title": "encodingType",
      "description": "The supported encoding type(s) for an EntryPoint request.",
      "type": "Text"
    },
    {
      "@id": "http://schema.org/contentType",
      "name": "contentType",
      "title": "contentType",
      "description": "The supported content type(s) for an EntryPoint response.",
      "type": "Text"
    }
  ],
  "privileges": [
    {
      "mask": 15,
      "type": "global"
    },
    {
      "mask": 15,
      "type": "global",
      "account": "Administrators"
    }
  ]
}