{
  "$schema": "https://themost-framework.github.io/themost/models/2018/2/schema.json",
  "@id": "https://themost.io/schemas/ExamPeriodParticipateAction",
  "name": "ExamPeriodParticipateAction",
  "description": "The act of requesting a participation to an exam period",
  "title": "ExamPeriodParticipateAction",
  "abstract": false,
  "sealed": false,
  "inherits": "StudentRequestAction",
  "version": "1.2",
  "fields": [
    {
      "@id": "http://schema.org/additionalType",
      "name": "additionalType",
      "readonly": true,
      "nullable": false,
      "value": "javascript:return this.model.name;"
    },
    {
      "@id": "http://schema.org/actionStatus",
      "name": "actionStatus",
      "title": "actionStatus",
      "description": "Indicates the current disposition of the Action.",
      "type": "ActionStatusType",
      "value": "javascript:return { alternateName:'CompletedActionStatus' };"
    },
    {
      "name": "year",
      "title": "Academic year",
      "description": "Academic year",
      "type": "AcademicYear",
      "nullable": false,
      "expandable": true
    },
    {
      "name": "examPeriod",
      "title": "Exam period",
      "description": "Exam period",
      "type": "ExamPeriod",
      "nullable": false,
      "expandable": true
    },
    {
      "name": "agree",
      "title": "Agreement",
      "description": "Student agreement for participating to exam period",
      "type": "Boolean",
      "nullable": false,
      "value": "javascript:return 1;"
    },
    {
      "name": "total",
      "title": "Total",
      "description": "Total available course exams",
      "type": "Integer",
      "value": "javascript:return 0;"
    },
    {
      "name": "selected",
      "title": "Selected",
      "description": "Total selected course exams",
      "type": "Integer",
      "value": "javascript:return 0;"
    },
    {
      "name": "courseExamActions",
      "title": "Course exam actions",
      "description": "Related course exams",
      "type": "CourseExamParticipateAction",
      "many": true,
      "mapping": {
        "parentModel": "ExamPeriodParticipateAction",
        "childModel": "CourseExamParticipateAction",
        "parentField": "id",
        "childField": "initiator",
        "cascade": "none",
        "associationType": "association"
      }
    }
  ],
  "constraints": [
    {
      "type": "unique",
      "description": "A student exam participation must be unique for an exam period and year.",
      "fields": [
        "student",
        "examPeriod",
        "year"
      ]
    }
  ],
  "eventListeners": [
    {
      "type": "./listeners/exam-participate-action-listener"
    }
  ],
  "privileges": [
    {
      "mask": 15,
      "type": "global"
    },
    {
      "mask": 15,
      "type": "global",
      "account": "Administrators"
    },
    {
      "mask": 1,
      "type": "self",
      "filter": "owner eq me()"
    },
    {
      "mask": 2,
      "type": "self",
      "filter": "owner eq me()"
    },
    {
      "mask": 15,
      "type": "self",
      "account": "Registrar",
      "filter": "student/department eq departments()"
    }
  ]
}
