{
  "$schema": "https://themost-framework.github.io/themost/models/2018/2/schema.json",
  "@id": "https://universis.io/schemas/InstructorStatus",
  "name": "InstructorStatus",
  "title": "Κατάσταση διδάσκοντα",
  "caching": "always",
  "implements": "Enumeration",
  "category": "lookup",
  "version": "1.0",
  "fields": [
    {
      "name": "id",
      "title": "Id",
      "type": "Counter",
      "nullable": false,
      "primary": true
    }
  ],
  "privileges": [
    {
      "mask": 1,
      "type": "global",
      "account": "*"
    },
    {
      "mask": 15,
      "type": "global"
    },
    {
      "mask": 15,
      "type": "global",
      "account": "Administrators"
    }
  ],
  "constraints": [
    {
      "type": "unique",
      "description": "Alternate name must be unique across different records",
      "fields": [
        "alternateName"
      ]
    },
    {
      "type": "unique",
      "description": "Name must be unique across different records",
      "fields": [
        "name"
      ]
    }
  ],
  "seed": [
    {
      "alternateName": "active",
      "name": "Ενεργός",
      "description": "Ενεργός",
      "identifier": 1
    },
    {
      "alternateName": "inactive",
      "name": "Ανενεργός",
      "description": "Ανενεργός",
      "identifier": 2
    },
    {
      "alternateName": "suspended",
      "name": "Σε αναστολή",
      "description": "Ο διδάσκοντας βρίσκεται σε αναστολή",
      "identifier": 3
    }
  ],
  "eventListeners": [
    {
      "name": "Lookup Cache Listener",
      "type": "./listeners/lookup-cache-listener.js"
    }
  ]
}

