{
  "$schema": "https://themost-framework.github.io/themost/models/2018/2/schema.json",
  "@id": "https://universis.io/entities/InternshipLocale",
  "name": "InternshipLocale",
  "description": "Contains a collection of extra field required for internship.",
  "title": "InternshipLocale",
  "abstract": false,
  "contains": "Internship",
  "hidden": true,
  "sealed": false,
  "version": "1.2",
  "fields": [
    {
      "@id": "https://themost.io/schemas/id",
      "name": "id",
      "title": "ID",
      "description": "The identifier of the item.",
      "type": "Counter",
      "primary": true,
      "nullable": false
    },
    {
      "@id": "https://themost.io/schemas/object",
      "name": "object",
      "title": "object",
      "description": "The parent item.",
      "type": "Internship"
    },
    {
      "@id": "http://schema.org/inLanguage",
      "name": "inLanguage",
      "title": "inLanguage",
      "description": "The language of this item.",
      "type": "Text",
      "size": 5
    },
    {
      "name": "companyContact",
      "title": "Υπεύθυνος",
      "description": "Ο υπεύθυνος επικοινωνίας της εταιρείας-οργανισμού.",
      "type": "Text",
      "nullable": true,
      "size": 60
    },
    {
      "name": "name",
      "title": "Ονομασία",
      "description": "Η ονομασία της πρακτικής άσκησης",
      "type": "Text",
      "nullable": true,
      "size": 512
    }
  ],
  "constraints": [
    {
      "type": "unique",
      "fields": [
        "object", "inLanguage"
      ]
    }
  ],
  "privileges": [
    {
      "mask": 1,
      "type": "global",
      "account": "*"
    },
    {
      "mask": 15,
      "type": "global"
    },
    {
      "mask": 15,
      "type": "global",
      "account": "Administrators"
    },
    {
      "mask": 15,
      "type": "self",
      "account": "Registrar",
      "filter": "object/department eq departments()"
    }
  ]
}
