{
  "$schema": "https://themost-framework.github.io/themost/models/2018/2/schema.json",
  "@id": "https://universis.io/schemas/StudyType",
  "name": "StudyType",
  "type": "lookup",
  "title": "Study type",
  "hidden": false,
  "sealed": false,
  "abstract": false,
  "caching": "always",
  "implements": "Enumeration",
  "category": "lookup",
  "version": "1.1",
  "fields": [
    {
      "name": "id",
      "title": "Id",
      "type": "Counter",
      "nullable": false,
      "primary": true
    }
  ],
  "privileges": [
    {
      "mask": 1,
      "type": "global",
      "account": "*"
    },
    {
      "mask": 15,
      "type": "global"
    },
    {
      "mask": 15,
      "type": "global",
      "account": "Administrators"
    }
  ],
  "constraints": [
    {
      "type": "unique",
      "description": "Alternate name must be unique across different records",
      "fields": [
        "alternateName"
      ]
    },
    {
      "type": "unique",
      "description": "Name must be unique across different records",
      "fields": [
        "name"
      ]
    }
  ],
  "seed": [
    {
      "alternateName": "full",
      "name": "Πλήρους Φοίτησης",
      "description": " Αποτελεί το βασικό τύπο φοίτησης των ελληνικών εκπαιδευτικών ιδρυμάτων"
    },
    {
      "alternateName": "parttime",
      "name": "Μερικής Φοίτησης",
      "description": "Ορίζονται οι φοιτητές που αποδεδειγμένα εργάζονται τουλάχιστον 20 ώρες την εβδομάδα, ύστερα από αίτηση τους. Υπάρχουν δε ειδικότερες προϋποθέσεις όπως η διαδικασία διευκόλυνσης της φοίτησης των φοιτητών με αναπηρία οι οποίες καθορίζονται από τα ιδρύματα"
    }
  ],
  "eventListeners": [
    {
      "name": "Lookup Cache Listener",
      "type": "./listeners/lookup-cache-listener.js"
    }
  ]
}
