{
  "$schema": "https://themost-framework.github.io/themost/models/2018/2/schema.json",
  "@id": "https://themost.io/schemas/StudentRequestConfiguration",
  "name": "StudentRequestConfiguration",
  "description": "The configuration of student requests",
  "title": "StudentRequestConfiguration",
  "abstract": false,
  "sealed": false,
  "inherits": "RequestConfiguration",
  "version": "1.1",
  "fields": [
  ],
  "eventListeners": [
    {
      "type": "./listeners/validate-student-request-configuration-listener"
    }
  ],
  "privileges": [
    {
      "mask": 15,
      "type": "global"
    },
    {
      "mask": 1,
      "type": "global",
      "account": "Students"
    },
    {
      "mask": 15,
      "type": "global",
      "account": "Administrators"
    },
    {
      "mask": 15,
      "type": "global",
      "account": "Registrar"
    }
  ]
}
