{
  "$schema": "https://themost-framework.github.io/themost/models/2018/2/schema.json",
  "@id": "https://universis.io/schemas/StudentSuspendAction",
  "name": "StudentSuspendAction",
  "title": "StudentSuspendAction",
  "hidden": false,
  "sealed": false,
  "version": "1.6",
  "inherits": "UpdateAction",
  "fields": [
    {
      "@id": "http://schema.org/object",
      "name": "object",
      "title": "Student",
      "description": "A student associated with registration action",
      "type": "Student",
      "nullable": false,
      "expandable": true,
      "editable": false,
      "value": "javascript:return this.student();"
    },
    {
      "name": "suspensionDate",
      "title": "Ημερομηνία αναστολής",
      "description": "Ημερομηνία αναστολής",
      "type": "DateTime",
      "nullable": false,
      "value": "javascript:return new Date();"
    },
    {
      "name": "suspensionPeriod",
      "title": "Περίοδος αναστολής",
      "description": "Περίοδος αναστολής",
      "type": "AcademicPeriod",
      "expandable": true,
      "nullable": false
    },
    {
      "name": "suspensionYear",
      "title": "Ακαδημαϊκό έτος αναστολής",
      "description": "Ακαδημαϊκό έτος αναστολής",
      "type": "AcademicYear",
      "expandable": true,
      "nullable": false
    },
    {
      "name": "suspensionPeriods",
      "title": "Περίοδοι ανστολής",
      "description": "Περίοδοι αναστολής",
      "type": "Number",
      "nullable": false
    },
    {
      "name": "suspensionType",
      "title": "Τύπος αναστολής",
      "description": "Τύπος αναστολής",
      "type": "Text",
      "size": 60,
      "nullable": true
    },
    {
      "name": "studentSuspension",
      "title": "Αναστολή φοιτητή",
      "description": "Η συνδεόμενη αναστολή φοίτησης",
      "type": "StudentSuspension",
      "nullable": true
    },
    {
      "name": "suspensionExpiredDate",
      "title": "Ημερομηνία λήξης αναστολής",
      "description": "Ημερομηνία λήξης αναστολής",
      "type": "DateTime"
    },

    {
      "name": "comments",
      "title": "Σχόλια",
      "description": "Σχόλια",
      "type": "Text",
      "nullable": true,
      "size": 1024
    }
  ],
  "eventListeners": [
    {
      "type": "@themost/data/previous-state-listener"
    },
    {
      "type": "./listeners/complete-student-suspend-listener"
    },
    {
      "type": "./listeners/update-action-initiator-status-listener"
    }
  ],
  "privileges": [
    {
      "mask": 15,
      "type": "global"
    },
    {
      "mask": 15,
      "type": "global",
      "account": "Administrators"
    },
    {
      "mask": 1,
      "type": "self",
      "filter": "object eq student()",
      "account": "Students"
    },
    {
      "mask": 2,
      "type": "self",
      "filter": "object eq student() and actionStatus/alternateName eq 'ActiveActionStatus'",
      "account": "Students"
    },
    {
      "mask": 7,
      "type": "self",
      "account": "Registrar",
      "filter": "object/department eq departments()"
    }
  ]
}
